…
    ## Data Manipulation Tools and Strategies

    We can look at individual columns in a data set or subsets of columns in a dataset. For example, if we are only interested in flipper length and species, we can `select()` those columns. Here we look at body mass and species to determine if there is an association between species and size. By analyzing this data, we can determine if some species are smaller or larger than others in this dataset.


    ::: {.cell}
    
    ```{.r .cell-code}
    penguins %>%
      select(species, body_mass_g) 
    ```
    
    ::: {.cell-output .cell-output-stdout}
    ```
    # A tibble: 44 × 2
       species body_mass_g
       <chr>         <dbl>
     1 Gentoo         6050
     2 Gentoo         5800
     3 Gentoo         5550
     4 Gentoo         5500
     5 Gentoo         5850
     6 Gentoo         5950
     7 Gentoo         5700
     8 Gentoo         5350
     9 Gentoo         5550
    10 Gentoo         6300
    # … with 34 more rows
    ```
…
