NYCSquirrelAnalysis
…
This table represents the geographical, physical, and behavioral features of the squirrels in the dataset.

Exploratory Analysis

What is the most common fur color? How many squirrels of each fur color are there?

Here I use the select() tool to isolate the primary fur color column and then the count() tool to summarize the amount of squirrels per fur color. Then, using the ggplot() tool, I was able to visualize the data into a bar graph.

exploratory_data %>%
  select(primary_fur_color)

# A tibble: 1,511 × 1
   primary_fur_color
   <chr>            
 1 Black            
 2 Gray             
 3 Gray             
 4 Gray             
 5 Gray             
 6 Gray             
 7 Gray             
 8 Cinnamon         
 9 Gray             
10 Gray             
# … with 1,501 more rows
…
